<?xml version="1.0" encoding="UTF-8" standalone="no"?>
<svg
	xmlns:svg="http://www.w3.org/2000/svg"
	xmlns="http://www.w3.org/2000/svg"
	xmlns:mblogic="http://www.example.com/mblogic"
	version="1.0"
	width="45"
	height="45">

<!-- Pump rotor. -->
<g mblogic:widgettype="pump_rotor_animated" 
	mblogic:widgetname="Animated Pump Rotor"
	mblogic:editcount="0"
	mblogic:menu='[{"value": "", "type": "tag", "name": "Output Tag", "param": "outputtag"}]'
	mblogic:inputfunc="[]"
	mblogic:outputfunc='MBHMIProtocol.AddToDisplayList(new MB_PumpRotateAnimated(document, "%(widgetid)s"), "%(outputtag)s", "read");'
	>
<!-- This is the rotating view. -->
	<polygon fill="blue" points="-22,0 22,0 15,15 0,22 0,-22 -15,-15 -22,0" >

		<animateTransform attributeName="transform" attributeType="XML"
				type="rotate" from="0" to="360" dur="5s" repeatCount="indefinite" 
				additive="replace" fill="remove"/>
	</polygon>

</g>

</svg>
