<?xml version="1.0" encoding="UTF-8" standalone="no"?>
<svg
   xmlns:svg="http://www.w3.org/2000/svg"
   xmlns="http://www.w3.org/2000/svg"
   xmlns:mblogic="http://www.example.com/mblogic"
   version="1.0"
   width="100"
   height="40">

<!-- This is an HMI system status pilot light. -->
<g mblogic:widgettype="pl_status" 
	mblogic:widgetname="Status Pilot Light"
	mblogic:editcount="0"
	mblogic:menu='[{"value": "black", "type": "colour", "name": "Init Colour", "param": "initcolour"}, {"value": "", "type": "colour", "name": "Ok Colour", "param": "okcolour"}, {"value": "", "type": "colour", "name": "Error Colour", "param": "errcolour"}]'
	mblogic:inputfunc="[]"
	mblogic:outputfunc='MBHMIProtocol.AddToDisplayList(new MB_PilotLightStat(document, "%(widgetid)s", "%(initcolour)s",  "%(okcolour)s", "%(errcolour)s", "ok"), "", "stat");'
	>

	<rect x="0" y="0" width="100" height="35" stroke="black" stroke-width="5" rx="10" ry="10" opacity="1.0" />
	<text x="50" y="26" font-size="24" stroke-width="2px" stroke="orange" fill="orange" text-anchor="middle">PL</text>

</g>

</svg>
