<?xml version="1.0" encoding="UTF-8" standalone="no"?>
<svg
   xmlns:svg="http://www.w3.org/2000/svg"
   xmlns="http://www.w3.org/2000/svg"
   xmlns:mblogic="http://www.example.com/mblogic"
   version="1.0"
   width="100"
   height="100">

<defs>
	<linearGradient id="MB_SilverGradient" x1="1" y1="1" x2="0" y2="0">
		<stop offset="50%" stop-color="silver" />
		<stop offset="100%" stop-color="white" />
	</linearGradient>

	<!-- The following filter is used to add a drop shadown. -->
	<filter id="MB_DropShadowFilter">
		<feGaussianBlur stdDeviation="2">
		</feGaussianBlur>
	</filter>
</defs>

<g
	mblogic:widgettype="pl_animated" 
	mblogic:widgetname="Pilot Light Animated"
	mblogic:editcount="0"
	mblogic:menu='[{"value": "", "type": "tag", "name": "Output Tag", "param": "outputtag"}]'
	mblogic:inputfunc="[]"
	mblogic:outputfunc='MBHMIProtocol.AddToDisplayList(new MB_PilotLightFlashTransform(document, "%(widgetid)s"), "%(outputtag)s", "read");'
	>

	<!-- This is a decorative nut. -->
	<polygon transform="translate(5,5)" fill="grey" stroke="none" 
		filter="url(#MB_DropShadowFilter)" 
		points="63,0 27,0 0,27 0,63 27,90 63,90 90,63 90,27 63,0" />
	<polygon fill="url(#MB_SilverGradient)" stroke="none" 
		points="63,0 27,0 0,27 0,63 27,90 63,90 90,63 90,27 63,0" />
	
	<!-- This is the static background. -->
	<rect fill='lightgreen' x="15" y="15" width="60" height="60" rx="15" stroke="black" stroke-width="5px"/>
	
	<!-- This is the part which changes colour. -->
	<g transform="translate(45,45)">
		<rect fill='darkgreen' x="-30" y="-30" width="60" height="60" rx="15" stroke="black" stroke-width="5px">
			<animateTransform attributeName="transform" attributeType="XML"
			type="scale" from="0" to="1" dur="1s" repeatCount="indefinite"
			additive="replace" fill="remove"/>
	
		</rect>
	</g>

</g>

</svg>
