<?xml version="1.0" encoding="UTF-8" standalone="no"?>
<svg
   xmlns:svg="http://www.w3.org/2000/svg"
   xmlns="http://www.w3.org/2000/svg"
   xmlns:mblogic="http://www.example.com/mblogic"
   version="1.0"
   width="50"
   height="50">

<defs>

	<!-- Colour Gradients. -->
	<linearGradient id="MB_WhiteGradient" x1="1" y1="1" x2="0" y2="0">
		<stop offset="50%" stop-color="white" />
		<stop offset="100%" stop-color="white" />
	</linearGradient>

</defs>

<!-- This provides a triangular button pointing up. -->
<g class="buttonactivate" fill="url(#MB_WhiteGradient)" stroke="black"  
	mblogic:widgettype="pb_inc" 
	mblogic:widgetname="Increment Push Button"
	mblogic:editcount="0"
	mblogic:menu='[{"param": "inputtag", "type": "tag", "name": "Input Tag", "value": ""}, {"param": "reftag", "type": "tag", "name": "Reference Tag", "value": ""}, {"param": "inc", "type": "int", "name": "Increment", "value": 1}, {"param": "limit", "type": "int", "name": "Limit", "value": 99}]'
	mblogic:inputfunc='[{"event": "onclick", "func": "MBHMIProtocol.WriteIncImmediate(\"%(inputtag)s\", \"%(reftag)s\", %(inc)s, %(limit)s);"}]'
	mblogic:outputfunc=""
	>

	<!-- This provides the relief. -->
	<polygon points="0,40 4,42 44,42 40,40 0,40" />
	<polygon points="20,0 24,2 44,42 40,40 20,0" /> 

	<!-- This is the button. -->
	<polygon points="0,40 20,0 40,40 0,40"/>

</g>

</svg>

